<svg width="108" height="32" viewBox="0 0 108 32" fill="none" xmlns="http://www.w3.org/2000/svg">
<path d="M104 0.64C104.891 0.64 105.746 0.993999 106.376 1.62412C107.006 2.25424 107.36 3.10887 107.36 4V28C107.36 28.8911 107.006 29.7458 106.376 30.3759C105.746 31.006 104.891 31.36 104 31.36H4C3.10887 31.36 2.25424 31.006 1.62412 30.3759C0.993999 29.7458 0.64 28.8911 0.64 28V4C0.64 3.10887 0.993999 2.25424 1.62412 1.62412C2.25424 0.993999 3.10887 0.64 4 0.64H104ZM104 0H4C2.93913 0 1.92172 0.421427 1.17157 1.17157C0.421427 1.92172 0 2.93913 0 4V28C0 29.0609 0.421427 30.0783 1.17157 30.8284C1.92172 31.5786 2.93913 32 4 32H104C105.061 32 106.078 31.5786 106.828 30.8284C107.579 30.0783 108 29.0609 108 28V4C108 2.93913 107.579 1.92172 106.828 1.17157C106.078 0.421427 105.061 0 104 0Z" fill="white"/>
<path d="M25.6899 15.4514C25.6678 12.9947 27.7015 11.7995 27.7945 11.7438C26.6427 10.0646 24.8576 9.83516 24.2302 9.81687C22.7309 9.65908 21.2765 10.714 20.5128 10.714C19.7338 10.714 18.5576 9.83211 17.29 9.85803C15.6588 9.88318 14.1328 10.8276 13.2958 12.2942C11.5686 15.2845 12.8568 19.6788 14.5116 22.0959C15.3394 23.2796 16.3067 24.6014 17.5728 24.5549C18.8114 24.5038 19.2741 23.7652 20.7689 23.7652C22.2499 23.7652 22.6844 24.5549 23.9756 24.5251C25.305 24.5038 26.1419 23.336 26.9408 22.1416C27.8974 20.7848 28.2816 19.4486 28.2968 19.38C28.2656 19.3693 25.7151 18.3959 25.6899 15.4514Z" fill="white"/>
<path d="M23.2509 8.2262C23.9171 7.39306 24.3729 6.2596 24.2464 5.10938C23.2821 5.15206 22.0763 5.77634 21.3819 6.59118C20.7675 7.30921 20.2187 8.48612 20.3604 9.5929C21.4436 9.6737 22.5557 9.04637 23.2509 8.2262Z" fill="white"/>
<path d="M43.6156 24.3822H41.8845L40.9363 21.4026H37.6403L36.7371 24.3822H35.0518L38.3172 14.2383H40.3341L43.6156 24.3822ZM40.6504 20.1525L39.7929 17.5037C39.7022 17.2331 39.5322 16.5959 39.2815 15.5928H39.251C39.1511 16.0242 38.9903 16.6615 38.7692 17.5037L37.9269 20.1525H40.6504Z" fill="white"/>
<path d="M52.0127 20.6354C52.0127 21.8794 51.6765 22.8627 51.0042 23.5846C50.402 24.2271 49.6543 24.548 48.7617 24.548C47.7982 24.548 47.1061 24.202 46.6846 23.5099H46.6541V27.363H45.029V19.4761C45.029 18.694 45.0084 17.8914 44.9688 17.0681H46.398L46.4887 18.2275H46.5192C47.0611 17.354 47.8836 16.918 48.9873 16.918C49.8502 16.918 50.5705 17.2587 51.1467 17.9409C51.7245 18.6239 52.0127 19.5218 52.0127 20.6354ZM50.3571 20.6949C50.3571 19.983 50.197 19.396 49.8753 18.9341C49.5239 18.4524 49.0521 18.2115 48.4606 18.2115C48.0597 18.2115 47.6953 18.3457 47.3698 18.6102C47.0436 18.8769 46.8302 19.2253 46.7303 19.6567C46.68 19.8579 46.6548 20.0226 46.6548 20.1522V21.3718C46.6548 21.9038 46.818 22.3528 47.1442 22.7194C47.4704 23.0861 47.8942 23.269 48.4156 23.269C49.0277 23.269 49.5041 23.0327 49.8448 22.5616C50.1863 22.0898 50.3571 21.4678 50.3571 20.6949Z" fill="white"/>
<path d="M60.426 20.6354C60.426 21.8794 60.0898 22.8627 59.4167 23.5846C58.8153 24.2271 58.0676 24.548 57.175 24.548C56.2115 24.548 55.5194 24.202 55.0986 23.5099H55.0681V27.363H53.443V19.4761C53.443 18.694 53.4224 17.8914 53.3828 17.0681H54.812L54.9027 18.2275H54.9332C55.4744 17.354 56.2969 16.918 57.4014 16.918C58.2635 16.918 58.9838 17.2587 59.5616 17.9409C60.1371 18.6239 60.426 19.5218 60.426 20.6354ZM58.7704 20.6949C58.7704 19.983 58.6095 19.396 58.2879 18.9341C57.9365 18.4524 57.4662 18.2115 56.8739 18.2115C56.4722 18.2115 56.1086 18.3457 55.7824 18.6102C55.4561 18.8769 55.2435 19.2253 55.1436 19.6567C55.0941 19.8579 55.0681 20.0226 55.0681 20.1522V21.3718C55.0681 21.9038 55.2313 22.3528 55.556 22.7194C55.8822 23.0853 56.306 23.269 56.8289 23.269C57.441 23.269 57.9174 23.0327 58.2581 22.5616C58.5996 22.0898 58.7704 21.4678 58.7704 20.6949Z" fill="white"/>
<path d="M69.8322 21.5377C69.8322 22.4006 69.5326 23.1026 68.9312 23.6446C68.2703 24.2368 67.3503 24.5326 66.168 24.5326C65.0765 24.5326 64.2015 24.3222 63.5391 23.9007L63.9156 22.5462C64.6291 22.9776 65.4119 23.1941 66.2649 23.1941C66.8769 23.1941 67.3533 23.0554 67.6956 22.7794C68.0363 22.5035 68.2063 22.1331 68.2063 21.6711C68.2063 21.2595 68.066 20.9127 67.7848 20.6314C67.505 20.3502 67.0378 20.0887 66.3853 19.8471C64.6093 19.1847 63.722 18.2144 63.722 16.9384C63.722 16.1045 64.033 15.4207 64.6558 14.8887C65.2762 14.3559 66.104 14.0898 67.1391 14.0898C68.0622 14.0898 68.829 14.2507 69.4411 14.5716L69.0348 15.8964C68.4632 15.5854 67.8168 15.4299 67.0934 15.4299C66.5217 15.4299 66.0751 15.5709 65.7549 15.8514C65.4843 16.1022 65.3486 16.4078 65.3486 16.7699C65.3486 17.1708 65.5034 17.5024 65.8144 17.7631C66.085 18.004 66.5766 18.2647 67.2901 18.5459C68.1628 18.8973 68.8039 19.3082 69.2163 19.7792C69.6271 20.2488 69.8322 20.8365 69.8322 21.5377Z" fill="white"/>
<path d="M75.2055 18.2882H73.4143V21.8395C73.4143 22.7428 73.7298 23.194 74.3625 23.194C74.6529 23.194 74.8938 23.1689 75.0843 23.1186L75.1293 24.3526C74.8092 24.4723 74.3876 24.5325 73.8655 24.5325C73.2237 24.5325 72.7221 24.3366 72.3601 23.9456C71.9995 23.5538 71.8181 22.8967 71.8181 21.9737V18.2867H70.751V17.0671H71.8181V15.7278L73.4143 15.2461V17.0671H75.2055V18.2882Z" fill="white"/>
<path d="M83.2874 20.6644C83.2874 21.7887 82.9657 22.7118 82.3239 23.4336C81.6509 24.1768 80.7575 24.5473 79.6439 24.5473C78.5706 24.5473 77.7161 24.1913 77.0789 23.4794C76.4417 22.7674 76.123 21.8688 76.123 20.7856C76.123 19.6521 76.4508 18.7237 77.1086 18.0019C77.7649 17.2793 78.6507 16.918 79.7643 16.918C80.8375 16.918 81.7012 17.2739 82.3529 17.9866C82.9764 18.678 83.2874 19.5706 83.2874 20.6644ZM81.6013 20.717C81.6013 20.0424 81.4572 19.4639 81.1653 18.9814C80.8246 18.3975 80.3375 18.1063 79.7064 18.1063C79.0531 18.1063 78.5569 18.3982 78.2162 18.9814C77.9242 19.4646 77.7802 20.0523 77.7802 20.7475C77.7802 21.4221 77.9242 22.0006 78.2162 22.4824C78.5676 23.0662 79.0585 23.3574 79.6919 23.3574C80.3123 23.3574 80.7994 23.0601 81.1508 22.4671C81.4504 21.9755 81.6013 21.3908 81.6013 20.717Z" fill="white"/>
<path d="M88.5696 18.4973C88.4088 18.4676 88.2373 18.4524 88.0574 18.4524C87.4857 18.4524 87.0436 18.6681 86.7326 19.1003C86.462 19.4814 86.3263 19.9631 86.3263 20.5447V24.3826H84.702L84.7172 19.3716C84.7172 18.5286 84.6966 17.761 84.6562 17.0689H86.0717L86.1312 18.4684H86.1762C86.3477 17.9874 86.6183 17.6002 86.9887 17.3098C87.3508 17.0483 87.7418 16.918 88.1633 16.918C88.3135 16.918 88.4492 16.9286 88.5696 16.9477V18.4973Z" fill="white"/>
<path d="M95.8373 20.3774C95.8373 20.6686 95.8183 20.914 95.7779 21.1145H90.9026C90.9216 21.8371 91.1572 22.3897 91.6099 22.7709C92.0208 23.1116 92.5521 23.2823 93.2046 23.2823C93.9264 23.2823 94.585 23.1672 95.1772 22.9363L95.4318 24.0644C94.7397 24.3662 93.9226 24.5164 92.9797 24.5164C91.8455 24.5164 90.9552 24.1825 90.3073 23.5156C89.6609 22.8486 89.3369 21.953 89.3369 20.8294C89.3369 19.7265 89.638 18.808 90.2409 18.0754C90.8721 17.2934 91.725 16.9023 92.7983 16.9023C93.8525 16.9023 94.6505 17.2934 95.1925 18.0754C95.6216 18.6967 95.8373 19.465 95.8373 20.3774ZM94.2877 19.9559C94.2984 19.4742 94.1924 19.058 93.9721 18.7066C93.6909 18.2546 93.2587 18.0289 92.6771 18.0289C92.1458 18.0289 91.7136 18.2492 91.3835 18.6913C91.1129 19.0427 90.9521 19.4642 90.9026 19.9551H94.2877V19.9559Z" fill="white"/>
<path d="M41.2057 12.7582H40.1793V11.2271H36.0778V12.7582H35.0342L35 10.3632H35.5004C35.7484 10.1237 35.9466 9.77581 36.0949 9.31962C36.2431 8.86057 36.3387 8.34164 36.3814 7.76284L36.5439 5H40.4701V10.3632H41.2613L41.2057 12.7582ZM36.7236 10.3632H39.3923V5.87248H37.5747L37.472 7.62598C37.395 8.79784 37.1456 9.71023 36.7236 10.3632Z" fill="white"/>
<path d="M42.2168 8.87055C42.2168 8.4172 42.3066 8.00947 42.4862 7.64737C42.6658 7.28241 42.9182 7.00299 43.2432 6.80911C43.5682 6.61237 43.9417 6.514 44.3637 6.514C44.9881 6.514 45.4942 6.71502 45.882 7.11704C46.2726 7.51906 46.4836 8.05224 46.515 8.71658L46.5193 8.96036C46.5193 9.41656 46.4309 9.82428 46.2541 10.1835C46.0802 10.5428 45.8293 10.8208 45.5014 11.0175C45.1763 11.2143 44.8 11.3126 44.3723 11.3126C43.7194 11.3126 43.1961 11.0959 42.8027 10.6625C42.4121 10.2263 42.2168 9.64608 42.2168 8.92187V8.87055ZM43.256 8.96036C43.256 9.43652 43.3544 9.81003 43.5511 10.0809C43.7479 10.3489 44.0216 10.4829 44.3723 10.4829C44.723 10.4829 44.9953 10.3461 45.1892 10.0723C45.3859 9.79862 45.4843 9.39802 45.4843 8.87055C45.4843 8.40294 45.383 8.03228 45.1806 7.75857C44.981 7.48485 44.7087 7.34799 44.3637 7.34799C44.0244 7.34799 43.755 7.48342 43.5554 7.75429C43.3558 8.02231 43.256 8.42433 43.256 8.96036Z" fill="white"/>
<path d="M49.7372 10.4829C49.9966 10.4829 50.2119 10.4074 50.383 10.2562C50.554 10.1051 50.6453 9.91837 50.6567 9.69598H51.6361C51.6247 9.98395 51.5349 10.2534 51.3666 10.5043C51.1984 10.7524 50.9703 10.9491 50.6823 11.0945C50.3944 11.2399 50.0836 11.3126 49.75 11.3126C49.1028 11.3126 48.5895 11.1031 48.2103 10.6839C47.8311 10.2648 47.6415 9.686 47.6415 8.94753V8.84061C47.6415 8.13635 47.8297 7.57324 48.206 7.15125C48.5824 6.72642 49.0956 6.514 49.7457 6.514C50.296 6.514 50.7436 6.6751 51.0886 6.99729C51.4365 7.31663 51.619 7.73718 51.6361 8.25896H50.6567C50.6453 7.99379 50.554 7.77567 50.383 7.6046C50.2147 7.43353 49.9995 7.34799 49.7372 7.34799C49.4007 7.34799 49.1413 7.47059 48.9588 7.7158C48.7763 7.95815 48.6836 8.32739 48.6808 8.8235V8.9903C48.6808 9.49212 48.7706 9.86705 48.9502 10.1151C49.1327 10.3603 49.395 10.4829 49.7372 10.4829Z" fill="white"/>
<path d="M56.5006 7.42497H54.9994V11.2271H53.9601V7.42497H52.4761V6.59954H56.5006V7.42497Z" fill="white"/>
<path d="M59.3036 9.73875L60.2445 6.59954H61.3522L59.5132 11.9285C59.2309 12.7069 58.7519 13.0961 58.0762 13.0961C57.925 13.0961 57.7582 13.0704 57.5758 13.0191V12.215L57.7725 12.2279C58.0348 12.2279 58.2315 12.1794 58.3627 12.0825C58.4967 11.9884 58.6022 11.8287 58.6792 11.6035L58.8289 11.2057L57.2037 6.59954H58.3242L59.3036 9.73875Z" fill="white"/>
<path d="M66.3151 11.2271H65.2758V7.4378H63.471V11.2271H62.4317V6.59954H66.3151V11.2271Z" fill="white"/>
<path d="M71.7783 11.2271H70.739V9.35811H68.9385V11.2271H67.8992V6.59954H68.9385V8.5284H70.739V6.59954H71.7783V11.2271Z" fill="white"/>
<path d="M73.1315 8.87055C73.1315 8.4172 73.2213 8.00947 73.401 7.64737C73.5806 7.28241 73.8329 7.00299 74.158 6.80911C74.483 6.61237 74.8565 6.514 75.2785 6.514C75.9029 6.514 76.409 6.71502 76.7968 7.11704C77.1874 7.51906 77.3984 8.05224 77.4297 8.71658L77.434 8.96036C77.434 9.41656 77.3456 9.82428 77.1689 10.1835C76.9949 10.5428 76.744 10.8208 76.4161 11.0175C76.0911 11.2143 75.7147 11.3126 75.287 11.3126C74.6341 11.3126 74.1109 11.0959 73.7174 10.6625C73.3268 10.2263 73.1315 9.64608 73.1315 8.92187V8.87055ZM74.1708 8.96036C74.1708 9.43652 74.2692 9.81003 74.4659 10.0809C74.6626 10.3489 74.9363 10.4829 75.287 10.4829C75.6377 10.4829 75.91 10.3461 76.1039 10.0723C76.3007 9.79862 76.399 9.39802 76.399 8.87055C76.399 8.40294 76.2978 8.03228 76.0954 7.75857C75.8958 7.48485 75.6235 7.34799 75.2785 7.34799C74.9392 7.34799 74.6698 7.48342 74.4702 7.75429C74.2706 8.02231 74.1708 8.42433 74.1708 8.96036Z" fill="white"/>
<path d="M81.4491 11.2271V6.59954H83.3267C83.9596 6.59954 84.4415 6.71074 84.7722 6.93313C85.103 7.15268 85.2683 7.46917 85.2683 7.88259C85.2683 8.09644 85.2014 8.2889 85.0673 8.45997C84.9362 8.62819 84.7409 8.75792 84.4814 8.84916C84.7836 8.91189 85.0231 9.03877 85.1999 9.2298C85.3767 9.42083 85.4651 9.64608 85.4651 9.90554C85.4651 10.3361 85.3054 10.664 84.9861 10.8892C84.6696 11.1145 84.2134 11.2271 83.6175 11.2271H81.4491ZM82.4884 9.25546V10.4059H83.626C84.1592 10.4059 84.4258 10.2149 84.4258 9.83284C84.4258 9.44792 84.1549 9.25546 83.6132 9.25546H82.4884ZM82.4884 8.51129H83.3438C83.934 8.51129 84.2291 8.33737 84.2291 7.98952C84.2291 7.62456 83.9497 7.43638 83.3908 7.42497H82.4884V8.51129Z" fill="white"/>
</svg>
