<svg width="28" height="28" viewBox="0 0 28 28" fill="none" xmlns="http://www.w3.org/2000/svg">
<rect width="28" height="28" rx="14" fill="url(#paint0_linear)"/>
<path d="M13.9996 7.48944C15.0995 7.48944 15.9942 8.38416 15.9942 9.48411C15.9942 10.5831 15.0993 11.4778 13.9996 11.4778C12.9003 11.4778 12.0054 10.5831 12.0054 9.48411C12.0051 8.38393 12.9006 7.48944 13.9996 7.48944ZM13.9996 14.2999C16.6565 14.2999 18.8172 12.1399 18.8172 9.48411C18.8172 6.82694 16.6567 4.66602 13.9996 4.66602C11.3429 4.66602 9.18195 6.82717 9.18195 9.48411C9.18195 12.1399 11.3429 14.2999 13.9996 14.2999ZM15.9486 18.2295C16.9397 18.0038 17.8854 17.6122 18.746 17.0712C19.0628 16.8719 19.2874 16.5549 19.3705 16.1899C19.4535 15.825 19.3882 15.442 19.1889 15.1252C19.0904 14.9682 18.9618 14.8321 18.8106 14.7248C18.6594 14.6175 18.4885 14.5411 18.3078 14.4999C18.127 14.4587 17.9399 14.4535 17.7572 14.4847C17.5744 14.5159 17.3996 14.5827 17.2427 14.6815C15.269 15.9224 12.7288 15.9215 10.7567 14.6815C10.5998 14.5827 10.425 14.5158 10.2423 14.4846C10.0595 14.4535 9.87244 14.4586 9.69169 14.4998C9.51094 14.541 9.34009 14.6175 9.18892 14.7248C9.03775 14.8321 8.90922 14.9682 8.81069 15.1252C8.61132 15.4419 8.54591 15.8249 8.62885 16.1898C8.71179 16.5547 8.93629 16.8718 9.25297 17.0712C10.1134 17.612 11.059 18.0036 12.0499 18.2295L9.35674 20.9231C9.09208 21.1879 8.94343 21.5469 8.9435 21.9213C8.94356 22.2956 9.09233 22.6546 9.35709 22.9193C9.62184 23.1839 9.98089 23.3326 10.3552 23.3325C10.7296 23.3324 11.0886 23.1837 11.3532 22.9189L13.9991 20.2726L16.6466 22.9191C16.7775 23.0502 16.933 23.1542 17.1041 23.2252C17.2752 23.2962 17.4587 23.3327 17.6439 23.3327C17.8292 23.3327 18.0126 23.2962 18.1838 23.2252C18.3549 23.1542 18.5104 23.0502 18.6413 22.9191C18.7726 22.7883 18.8767 22.6327 18.9478 22.4615C19.0189 22.2903 19.0555 22.1067 19.0555 21.9214C19.0555 21.736 19.0189 21.5524 18.9478 21.3812C18.8767 21.21 18.7726 21.0544 18.6413 20.9236L15.9486 18.2295Z" fill="white"/>
<defs>
<linearGradient id="paint0_linear" x1="14" y1="0" x2="14" y2="28" gradientUnits="userSpaceOnUse">
<stop stop-color="#D19967"/>
<stop offset="1" stop-color="#A83726"/>
</linearGradient>
</defs>
</svg>
